{
  "modid": "${ModId}",
  "name": "${project.name}",
  "author_list": [
    "Anon"
  ],
  "description": "${project.description}",
  "version": "${project.version}",
  "sts_version": "${SlayTheSpire.version}",
  "mts_version": "${ModTheSpire.version}",
  "dependencies": [
    "basemod",
    "stslib"
  ]
}

